tests/dump.vcd
$date
	Mon May  1 11:39:58 2023
$end
$version
	Icarus Verilog
$end
$timescale
	1ps
$end
$scope module adder $end
$var wire 4 ! A [3:0] $end
$var wire 4 " B [3:0] $end
$var wire 5 # X [4:0] $end
$upscope $end
$enddefinitions $end
#0
$dumpvars
b1111 #
b1010 "
b101 !
$end
#2001
b11 "
b10001 #
b1110 !
#4001
b10 "
b10001 #
b1111 !
#6001
b1111 "
b11000 #
b1001 !
#8001
b1 "
b10000 #
b1111 !
#10001
b10011 #
b100 "
#12001
b1 "
b1001 #
b1000 !
#14001
b1111 "
b11101 #
b1110 !
#16001
b101 "
b10001 #
b1100 !
#18001
b10 "
b11 #
b1 !
#20001
b1010 "
b10001 #
b111 !
